party,person,slug,color,major,winner
PPP/C,Irfaan Ali,pppc,#BF1B2C,TRUE,TRUE
APNU/AFC,David A. Granger,apnuafc,#24BB04,TRUE,TRUE
LJP,,ljp,#0267B5,,
ANUG,,anug,#FDA51D,,
CG,,cg,#E31E26,,
PRP,,prp,#763D97,,
TCI,,tci,#9568AF,,
URP,,urp,#FFD700,,
TNM,,tnm,#000000,,
