constituency,anug,apnuafc,cg,ljp,pppc,prp,tci,tnm,urp
Barima-Waini,0,3909,0,170,8002,24,0,0,6
Pomeroon-Supenaam,85,7340,151,121,18785,57,18,0,64
Essequibo Islands-West Demerara,302,23808,319,0,47851,136,77,56,43
Demerara-Mahaica,1426,116941,935,755,80920,401,466,135,98
Mahaica-Berbice,88,14502,100,0,18326,52,22,10,19
East Berbice-Corentyne,164,20399,272,0,43440,172,60,16,44
Cuyuni-Mazaruni,77,4813,67,884,3728,0,0,0,23
Potaro-Siparuni,0,2152,0,450,2052,0,0,11,0
Upper Takutu-Upper Essequibo,0,4887,0,277,7070,0,0,0,27
Upper Demerara-Berbice,171,19169,109,0,3162,47,37,16,36
